{"current_page":2,"data":[{"name":"merakl\u0131","slug":"merakli"},{"name":"analatik","slug":"analatik"},{"name":"embedded","slug":"embedded"},{"name":"ya\u0131l\u0131m","slug":"yailim"},{"name":"low-level","slug":"low-level"},{"name":"\u00e7ok-i\u015flemcili","slug":"cok-islemcili"},{"name":"\u00e7ok-izlekli","slug":"cok-izlekli"},{"name":"php-yaz\u0131l\u0131m-uzman","slug":"php-yazilim-uzman"},{"name":"i\u00e7erik-edit\u00f6r\u00fc","slug":"icerik-editoerue"},{"name":"mobil","slug":"mobil"},{"name":"front-end-developer","slug":"front-end-developer"},{"name":"web-\u00f6ny\u00fcz-yaz\u0131l\u0131m-geli\u015ftirme-uzman\u0131","slug":"web-oenyuez-yazilim-gelistirme-uzmani"},{"name":"bilgisayar-m\u00fchendisli\u011fi","slug":"bilgisayar-muehendisligi"},{"name":"yaz\u0131l\u0131m-m\u00fchendisli\u011fi","slug":"yazilim-muehendisligi"},{"name":"fro","slug":"fro"},{"name":"xamarin","slug":"xamarin"},{"name":"developer","slug":"developer"},{"name":"ofisboy","slug":"ofisboy"},{"name":"stajyer","slug":"stajyer"},{"name":"aloparca","slug":"aloparca"},{"name":"jq","slug":"jq"},{"name":"mysq","slug":"mysq"},{"name":"asp-net-mvc","slug":"asp-net-mvc-1"},{"name":"c","slug":"c-1"},{"name":"izmir","slug":"izmir"},{"name":"web-tasar\u0131m-uzman\u0131","slug":"web-tasarim-uzmani"},{"name":"yazilim","slug":"yazilim-1"},{"name":"bi\u0307lgi\u0307sayar","slug":"bi-lgi-sayar"},{"name":"restoran","slug":"restoran"},{"name":"y\u00f6neti\u0307ci\u0307","slug":"yoeneti-ci"},{"name":"and","slug":"and"},{"name":"front","slug":"front"},{"name":"d3","slug":"d3"},{"name":"\u00fcmraniye-gebze-php-nodejs-backend-gebze","slug":"uemraniye-gebze-php-nodejs-backend-gebze"},{"name":"team","slug":"team"},{"name":"deve","slug":"deve"},{"name":"ela","slug":"ela"},{"name":"angular-2","slug":"angular-2"},{"name":"yii2","slug":"yii2"},{"name":"my","slug":"my"},{"name":"vuex","slug":"vuex"},{"name":"backend-python","slug":"backend-python"},{"name":"system-linux","slug":"system-linux"},{"name":"farmazon","slug":"farmazon"},{"name":"slim","slug":"slim"},{"name":"redux","slug":"redux"},{"name":"asp.net","slug":"asp-net"},{"name":"mss","slug":"mss"},{"name":"gulp","slug":"gulp"},{"name":"rxjava","slug":"rxjava"},{"name":"spri","slug":"spri"},{"name":"javas","slug":"javas"},{"name":".netcore","slug":"netcore"},{"name":"vu","slug":"vu"},{"name":"php-laravel-ms-sql-developer-ata\u015fehir-yaz\u0131l\u0131m-e-ticaret","slug":"php-laravel-ms-sql-developer-atasehir-yazilim-e-ticaret"},{"name":"ent","slug":"ent"},{"name":"deneme","slug":"deneme"},{"name":"junior-developer","slug":"junior-developer"},{"name":"python-developer","slug":"python-developer"},{"name":"junior","slug":"junior"},{"name":"mv","slug":"mv"},{"name":"ruby-on-rails","slug":"ruby-on-rails"},{"name":"wordpress-developer","slug":"wordpress-developer"},{"name":"webmaster","slug":"webmaster"},{"name":"yaz\u0131l\u0131m-geli\u015ftirici","slug":"yazilim-gelistirici"},{"name":"web-tasar\u0131mc\u0131","slug":"web-tasarimci"},{"name":"fr","slug":"fr"},{"name":"dffddf","slug":"dffddf"},{"name":"fron","slug":"fron"},{"name":"management-trainee","slug":"management-trainee"},{"name":"mt","slug":"mt"},{"name":"engineering","slug":"engineering"},{"name":"fresh-graduate","slug":"fresh-graduate"},{"name":"researcher","slug":"researcher"},{"name":"startup","slug":"startup"},{"name":"hardwa","slug":"hardwa"},{"name":"tea","slug":"tea"},{"name":"opencart","slug":"opencart"},{"name":"prestashop","slug":"prestashop"},{"name":"sy","slug":"sy"},{"name":"backend-asp.net-mvc","slug":"backend-asp-net-mvc"},{"name":"uc","slug":"uc"},{"name":"sat\u0131\u015f","slug":"satis"},{"name":"mys","slug":"mys"},{"name":"vr","slug":"vr"},{"name":"game","slug":"game"},{"name":"thymeleaf","slug":"thymeleaf"},{"name":"maven","slug":"maven"},{"name":"cdi","slug":"cdi"},{"name":"jsf","slug":"jsf"},{"name":"tomcat","slug":"tomcat"},{"name":"wildfly","slug":"wildfly"},{"name":"red-hat","slug":"red-hat"},{"name":"jboss","slug":"jboss"},{"name":"#c++","slug":"c-2"},{"name":"#computervision","slug":"computervision"},{"name":"#deeplearning","slug":"deeplearning"},{"name":"#facialrecognition","slug":"facialrecognition"},{"name":"3dfacialanimation","slug":"3dfacialanimation"},{"name":"#softwareengineer-#deeplearning-#","slug":"softwareengineer-deeplearning"},{"name":"energy","slug":"energy"},{"name":"dj","slug":"dj"},{"name":"soa","slug":"soa"},{"name":"enti","slug":"enti"},{"name":"htm","slug":"htm"},{"name":"jque","slug":"jque"},{"name":"kaynak-y\u00f6netimi","slug":"kaynak-yoenetimi"},{"name":"i\u0307\u015f-analizi","slug":"i-s-analizi"},{"name":"operasyon","slug":"operasyon"},{"name":"confluence","slug":"confluence"},{"name":"sistem","slug":"sistem"},{"name":"swagger","slug":"swagger"},{"name":"renewable-energy","slug":"renewable-energy"},{"name":"lar","slug":"lar"},{"name":"senior","slug":"senior"},{"name":"end\u00fcstri-4.0","slug":"enduestri-4-0"},{"name":".net-core","slug":"net-core"},{"name":"we","slug":"we"},{"name":"lara","slug":"lara"},{"name":"lead","slug":"lead"},{"name":"ui-design","slug":"ui-design"},{"name":"bu","slug":"bu"},{"name":"woocommerce","slug":"woocommerce"},{"name":"github","slug":"github"},{"name":"ecma","slug":"ecma"},{"name":"figma","slug":"figma"},{"name":"sketch","slug":"sketch"},{"name":"marvel","slug":"marvel"},{"name":"net","slug":"net-1"},{"name":"androd","slug":"androd"},{"name":"nuxt.js","slug":"nuxt-js"},{"name":"kotl","slug":"kotl"},{"name":"destek-uzman\u0131","slug":"destek-uzmani"},{"name":"destek-personeli","slug":"destek-personeli"},{"name":"go","slug":"go"},{"name":"containerization","slug":"containerization"},{"name":"orchestration","slug":"orchestration"},{"name":"grafana","slug":"grafana"},{"name":"yarn","slug":"yarn"},{"name":"cleanmode","slug":"cleanmode"},{"name":"unit-testing","slug":"unit-testing"},{"name":"e2e-testing","slug":"e2e-testing"},{"name":"dotnet","slug":"dotnet"},{"name":"digital","slug":"digital"},{"name":"andr","slug":"andr"},{"name":"test-driven-development","slug":"test-driven-development"},{"name":"behaviour-driven-development","slug":"behaviour-driven-development"},{"name":"tdd","slug":"tdd"},{"name":"bdd","slug":"bdd"},{"name":"sem","slug":"sem"},{"name":"ads","slug":"ads"},{"name":"admin","slug":"admin"},{"name":"adminis","slug":"adminis"},{"name":"codigniter","slug":"codigniter"},{"name":"uzman","slug":"uzman"},{"name":"dijital-pazarlama","slug":"dijital-pazarlama"},{"name":"kendo-ui","slug":"kendo-ui"},{"name":"backend-php-freelance-remote","slug":"backend-php-freelance-remote"},{"name":"php7","slug":"php7"},{"name":"graphql","slug":"graphql"},{"name":"jpa","slug":"jpa"},{"name":"google-firebase","slug":"google-firebase"},{"name":"google-bigquery","slug":"google-bigquery"},{"name":"querydsl","slug":"querydsl"},{"name":"user-experience","slug":"user-experience"},{"name":"user-interface","slug":"user-interface"},{"name":"app-design","slug":"app-design"},{"name":"h","slug":"h"},{"name":"asp","slug":"asp"},{"name":"desktop","slug":"desktop"},{"name":"dev","slug":"dev"},{"name":"dbadmin","slug":"dbadmin"},{"name":"postg","slug":"postg"},{"name":"design-pa","slug":"design-pa"},{"name":"cyber-security","slug":"cyber-security"},{"name":"vulnerability-research","slug":"vulnerability-research"},{"name":"webs","slug":"webs"},{"name":"online","slug":"online"},{"name":"gds","slug":"gds"},{"name":"angul","slug":"angul"},{"name":"ionic","slug":"ionic"},{"name":"remo","slug":"remo"},{"name":"rab","slug":"rab"},{"name":"boot","slug":"boot"},{"name":"u","slug":"u"},{"name":"mob","slug":"mob"},{"name":"front-end","slug":"front-end"},{"name":"web-designer","slug":"web-designer"},{"name":"web-tasar\u0131m","slug":"web-tasarim"},{"name":"\u00f6n-y\u00fcz","slug":"oen-yuez"},{"name":"ara-y\u00fcz","slug":"ara-yuez"},{"name":"php-developer","slug":"php-developer"},{"name":"yaz\u0131l\u0131m-uzman\u0131","slug":"yazilim-uzmani"},{"name":"development","slug":"development"},{"name":"unity-developer","slug":"unity-developer"},{"name":"scripting","slug":"scripting"},{"name":"sq","slug":"sq"},{"name":"phpcss","slug":"phpcss"},{"name":"nuxt","slug":"nuxt"},{"name":"nuxtjs","slug":"nuxtjs"},{"name":"ios-developer","slug":"ios-developer"},{"name":"android-developer","slug":"android-developer"},{"name":"webrtc","slug":"webrtc"},{"name":"gps","slug":"gps"},{"name":"jiroskop","slug":"jiroskop"},{"name":"active-directory","slug":"active-directory"},{"name":"bakcend","slug":"bakcend"},{"name":"grap","slug":"grap"},{"name":"ora","slug":"ora"},{"name":"azu","slug":"azu"},{"name":"restorant","slug":"restorant"},{"name":"rea","slug":"rea"},{"name":"jest","slug":"jest"},{"name":"wordp","slug":"wordp"},{"name":"m\u00fc\u015fteri-temsilcisi","slug":"muesteri-temsilcisi"},{"name":"rabbi","slug":"rabbi"},{"name":"web-developer","slug":"web-developer"},{"name":"system-engineers","slug":"system-engineers"},{"name":"vmware","slug":"vmware"},{"name":"firewall","slug":"firewall"},{"name":"research","slug":"research"},{"name":"datacenter","slug":"datacenter"},{"name":"simulation","slug":"simulation"},{"name":"git\/tfs","slug":"git-tfs"},{"name":"soft","slug":"soft"},{"name":"les","slug":"les"},{"name":"bitbucket","slug":"bitbucket"},{"name":"atlassian","slug":"atlassian"},{"name":"bamboo","slug":"bamboo"},{"name":"jqu","slug":"jqu"},{"name":"ankara","slug":"ankara"},{"name":"dbms","slug":"dbms"},{"name":"sharepoint","slug":"sharepoint"},{"name":"obje","slug":"obje"},{"name":"dja","slug":"dja"},{"name":"cakephp","slug":"cakephp"},{"name":"ai","slug":"ai"},{"name":"puppet","slug":"puppet"},{"name":"middleware","slug":"middleware"},{"name":"iis","slug":"iis"},{"name":"was","slug":"was"},{"name":"k-nn","slug":"k-nn"},{"name":"tibco","slug":"tibco"},{"name":"wsdl","slug":"wsdl"},{"name":"soap-envelope","slug":"soap-envelope"},{"name":"ecs","slug":"ecs"},{"name":"lambda","slug":"lambda"},{"name":"goo","slug":"goo"},{"name":"rails","slug":"rails"},{"name":"neo4j","slug":"neo4j"}],"first_page_url":"https:\/\/api.kodilan.com\/tags?page=1","from":251,"last_page":3,"last_page_url":"https:\/\/api.kodilan.com\/tags?page=3","next_page_url":"https:\/\/api.kodilan.com\/tags?page=3","path":"https:\/\/api.kodilan.com\/tags","per_page":250,"prev_page_url":"https:\/\/api.kodilan.com\/tags?page=1","to":500,"total":682}