{"current_page":3,"data":[{"name":"graphdb","slug":"graphdb"},{"name":"visualization","slug":"visualization"},{"name":"intern","slug":"intern"},{"name":"code","slug":"code"},{"name":"coder","slug":"coder"},{"name":"semantic-ui","slug":"semantic-ui"},{"name":"rest-apis","slug":"rest-apis"},{"name":"ht","slug":"ht"},{"name":"hypercasual","slug":"hypercasual"},{"name":"gam","slug":"gam"},{"name":"boo","slug":"boo"},{"name":"adobe-photoshop","slug":"adobe-photoshop"},{"name":"adobe-illustrator","slug":"adobe-illustrator"},{"name":"after-effects","slug":"after-effects"},{"name":"gimp","slug":"gimp"},{"name":"inkscape","slug":"inkscape"},{"name":"ux\/ui","slug":"ux-ui"},{"name":"content-marketing","slug":"content-marketing"},{"name":"web-aray\u00fcz","slug":"web-arayuez"},{"name":"andro","slug":"andro"},{"name":"spr","slug":"spr"},{"name":"mach","slug":"mach"},{"name":"desig","slug":"desig"},{"name":"java-enterprise","slug":"java-enterprise"},{"name":"jee","slug":"jee"},{"name":"djan","slug":"djan"},{"name":"\u00f6ny\u00fcz","slug":"oenyuez"},{"name":"bac","slug":"bac"},{"name":"ful","slug":"ful"},{"name":"express","slug":"express"},{"name":"pos","slug":"pos"},{"name":"ios-ios-development-mobile-ux-ui-software-developer-ios-sdk-sdk","slug":"ios-ios-development-mobile-ux-ui-software-developer-ios-sdk-sdk"},{"name":"centos","slug":"centos"},{"name":"zabbix","slug":"zabbix"},{"name":"graylog","slug":"graylog"},{"name":"apache","slug":"apache"},{"name":"nginx","slug":"nginx"},{"name":"core","slug":"core"},{"name":"jso","slug":"jso"},{"name":"java-geli\u015ftirici","slug":"java-gelistirici"},{"name":"java-yaz\u0131l\u0131m-uzman\u0131","slug":"java-yazilim-uzmani"},{"name":"java-developer","slug":"java-developer"},{"name":"yaz\u0131l\u0131m-geli\u015ftirme","slug":"yazilim-gelistirme"},{"name":"sistem-m\u00fchendisi","slug":"sistem-muehendisi"},{"name":"aray\u00fcz-geli\u015ftirici","slug":"arayuez-gelistirici"},{"name":"filebeat","slug":"filebeat"},{"name":"logstash","slug":"logstash"},{"name":"elk","slug":"elk"},{"name":"prometheus","slug":"prometheus"},{"name":"sqlalchemy","slug":"sqlalchemy"},{"name":"extjs","slug":"extjs"},{"name":"javascr","slug":"javascr"},{"name":"responsive","slug":"responsive"},{"name":"digital-media","slug":"digital-media"},{"name":"winform","slug":"winform"},{"name":"influx-db","slug":"influx-db"},{"name":"dotne","slug":"dotne"},{"name":"wor","slug":"wor"},{"name":"sosy","slug":"sosy"},{"name":"man","slug":"man"},{"name":"reac","slug":"reac"},{"name":"sc","slug":"sc"},{"name":"zeplin","slug":"zeplin"},{"name":"xd","slug":"xd"},{"name":"illustrator","slug":"illustrator"},{"name":"crm","slug":"crm"},{"name":"use-case","slug":"use-case"},{"name":"test-case","slug":"test-case"},{"name":"sdlc","slug":"sdlc"},{"name":"matematik-m\u00fchendisli\u011fi","slug":"matematik-muehendisligi"},{"name":"database","slug":"database"},{"name":"odi","slug":"odi"},{"name":"obi","slug":"obi"},{"name":"unity3d","slug":"unity3d"},{"name":"unreal-engine","slug":"unreal-engine"},{"name":"cod","slug":"cod"},{"name":"motion","slug":"motion"},{"name":"design","slug":"design"},{"name":"cinema-4d","slug":"cinema-4d"},{"name":"maya","slug":"maya"},{"name":"premiere","slug":"premiere"},{"name":"jav","slug":"jav"},{"name":"microservices","slug":"microservices"},{"name":"scs","slug":"scs"},{"name":"nextjs","slug":"nextjs"},{"name":"mobx","slug":"mobx"},{"name":"frontend-developer","slug":"frontend-developer"},{"name":"pazaryeri","slug":"pazaryeri"},{"name":"backe","slug":"backe"},{"name":"ethereum","slug":"ethereum"},{"name":"nati","slug":"nati"},{"name":"asp.net-core","slug":"asp-net-core"},{"name":"phy","slug":"phy"},{"name":"restapi","slug":"restapi"},{"name":"scrum","slug":"scrum"},{"name":"jetpack","slug":"jetpack"},{"name":"ja","slug":"ja"},{"name":"electronjs","slug":"electronjs"},{"name":"customer-support","slug":"customer-support"},{"name":"angu","slug":"angu"},{"name":"javasc","slug":"javasc"},{"name":"growth","slug":"growth"},{"name":"digital-marketing","slug":"digital-marketing"},{"name":"data-analyze","slug":"data-analyze"},{"name":"marketing-campaigns","slug":"marketing-campaigns"},{"name":"io","slug":"io"},{"name":"performans-tuning","slug":"performans-tuning"},{"name":"pl\/sql","slug":"pl-sql"},{"name":"uygulama-optimizasyon","slug":"uygulama-optimizasyon"},{"name":"nos","slug":"nos"},{"name":"marke","slug":"marke"},{"name":"bizops","slug":"bizops"},{"name":"security","slug":"security"},{"name":"sdk-frameworks","slug":"sdk-frameworks"},{"name":"\u0131os","slug":"ios-1"},{"name":"avfoundaiton","slug":"avfoundaiton"},{"name":"saa","slug":"saa"},{"name":"ruby-rails-postgresql-redis-javascript-aws-foundation-react-bootstrap-highcharts","slug":"ruby-rails-postgresql-redis-javascript-aws-foundation-react-bootstrap-highcharts"},{"name":"ood","slug":"ood"},{"name":"aja","slug":"aja"},{"name":"grpc","slug":"grpc"},{"name":"doc","slug":"doc"},{"name":"technical-support","slug":"technical-support"},{"name":"ionic-frame","slug":"ionic-frame"},{"name":"ci\/cd","slug":"ci-cd"},{"name":"su","slug":"su"},{"name":"android-studio","slug":"android-studio"},{"name":"#engineer-#testengineer-#software-#security","slug":"engineer-testengineer-software-security"},{"name":"engineer","slug":"engineer"},{"name":"malware","slug":"malware"},{"name":"secu","slug":"secu"},{"name":"softw","slug":"softw"},{"name":"aug","slug":"aug"},{"name":"ui\/ux","slug":"ui-ux"},{"name":"clo","slug":"clo"},{"name":"yaz\u0131","slug":"yazi"},{"name":"flutter","slug":"flutter"},{"name":"webdeveloper","slug":"webdeveloper"},{"name":"arc","slug":"arc"},{"name":"#frontend-#backend-#react-#full-#stack","slug":"frontend-backend-react-full-stack"},{"name":"graphic","slug":"graphic"},{"name":"tkinter","slug":"tkinter"},{"name":"clickhouse","slug":"clickhouse"},{"name":"autonomous","slug":"autonomous"},{"name":"localization","slug":"localization"},{"name":"ang","slug":"ang"},{"name":"dotnet-core","slug":"dotnet-core"},{"name":"larave","slug":"larave"},{"name":"fu","slug":"fu"},{"name":"mobil-developer","slug":"mobil-developer"},{"name":"desi","slug":"desi"},{"name":"nosq","slug":"nosq"},{"name":"electron","slug":"electron"},{"name":"type","slug":"type"},{"name":"rabb","slug":"rabb"},{"name":"#webmaster","slug":"webmaster-1"},{"name":"ba","slug":"ba"},{"name":"odoo","slug":"odoo"},{"name":"object","slug":"object"},{"name":"chartjs","slug":"chartjs"},{"name":"@software-@specialist","slug":"atsoftware-atspecialist"},{"name":"@software-@specialist-@senior","slug":"atsoftware-atspecialist-atsenior"},{"name":"devop","slug":"devop"},{"name":"fullstack","slug":"fullstack"},{"name":"node.js","slug":"node-js"},{"name":"produc","slug":"produc"},{"name":"core2.0","slug":"core2-0"},{"name":"networ","slug":"networ"},{"name":"cto","slug":"cto"},{"name":"management","slug":"management"},{"name":"ecommerce","slug":"ecommerce"},{"name":"recommendation-engine","slug":"recommendation-engine"},{"name":"grapql","slug":"grapql"},{"name":"image-processing","slug":"image-processing"},{"name":"int","slug":"int"},{"name":"dart","slug":"dart"},{"name":"finance","slug":"finance"},{"name":"sec","slug":"sec"},{"name":"mobile-developer","slug":"mobile-developer"},{"name":"detox","slug":"detox"},{"name":"socket","slug":"socket"},{"name":"homestead","slug":"homestead"}],"first_page_url":"https:\/\/api.kodilan.com\/tags?page=1","from":501,"last_page":3,"last_page_url":"https:\/\/api.kodilan.com\/tags?page=3","next_page_url":null,"path":"https:\/\/api.kodilan.com\/tags","per_page":250,"prev_page_url":"https:\/\/api.kodilan.com\/tags?page=2","to":682,"total":682}